0.0160076,1,TRIAL_BEGIN
0.03244286,1,-
0.04918505,1,-
0.06620706,1,-
0.08214156,1,-
0.0987078,1,-
0.1153071,1,-
0.1322411,1,-
0.1487769,1,-
0.1649754,1,-
0.1817153,1,-
0.1981088,1,-
0.2146757,1,-
0.2315089,1,-
0.2485977,1,-
0.2643761,1,-
0.2809426,1,-
0.2977946,1,-
0.3146767,1,-
0.3307005,1,-
0.3472092,1,-
0.3637761,1,-
0.3803476,1,-
0.3969096,1,-
0.4134761,1,-
0.4300427,1,-
0.4466093,1,-
0.4633856,1,-
0.4802921,1,-
0.4963097,1,-
0.5134435,1,-
0.5294428,1,-
0.5464119,1,S0_OBJ_PRESSED_IS_CORRECT
0.5633783,1,-
0.5796075,1,-
0.5957087,1,-
0.6128316,1,-
0.6288418,1,-
0.645408,1,-
0.6619749,1,-
0.6786737,1,-
0.6953743,1,-
0.7116752,1,-
0.7285484,1,-
0.7448573,1,-
0.7613795,1,-
0.7779412,1,-
0.794508,1,-
0.8117493,1,-
0.8276865,1,-
0.8442084,1,-
0.8611325,1,-
0.8773422,1,-
0.8939084,1,-
0.9105613,1,-
0.9274543,1,-
0.9444025,1,-
0.9601763,1,-
0.9767432,1,-
0.9935892,1,-
1.009873,1,-
1.026596,1,-
1.04353,1,-
1.060508,1,-
1.076141,1,-
1.092708,1,-
1.109339,1,-
1.126315,1,-
1.142408,1,-
1.158975,1,-
1.175624,1,-
1.192109,1,-
1.208856,1,-
1.225241,1,-
1.241902,1,-
1.258375,1,-
1.274942,1,-
1.291508,1,-
1.308695,1,-
1.324677,1,-
1.341603,1,-
1.358574,1,-
1.374342,1,-
1.391028,1,-
1.407969,1,-
1.424042,1,-
1.440846,1,-
1.457175,1,-
1.473742,1,-
1.490309,1,-
1.506875,1,S9_OBJ_PRESSED_IS_MISS
1.523442,1,-
1.540009,1,-
1.556575,1,-
1.574029,1,-
1.589799,1,-
1.60697,1,-
1.623899,1,-
1.639867,1,-
1.655974,1,-
1.672743,1,-
1.689713,1,-
1.705675,1,-
1.722644,1,-
1.739594,1,-
1.756549,1,-
1.771942,1,-
1.788508,1,-
1.805418,1,-
1.822294,1,-
1.838365,1,-
1.855533,1,-
1.87151,1,-
1.888456,1,-
1.904475,1,-
1.921428,1,-
1.937608,1,-
1.954175,1,-
1.970741,1,-
1.987308,1,-
2.003875,1,-
2.020442,1,-
2.037009,1,-
2.053576,1,-
2.070142,1,-
2.086709,1,-
2.103274,1,-
2.120067,1,-
2.136408,1,-
2.153113,1,-
2.170143,1,-
2.186107,1,-
2.202674,1,-
2.219567,1,-
2.235808,1,-
2.252375,1,-
2.26894,1,-
2.285508,1,-
2.302372,1,-
2.318641,1,-
2.335247,1,-
2.351774,1,S1_OBJ_PRESSED_IS_CORRECT
2.368354,1,-
2.384907,1,-
2.401475,1,-
2.41857,1,-
2.434667,1,-
2.451609,1,-
2.467741,1,-
2.484308,1,-
2.500875,1,-
2.517491,1,-
2.534479,1,-
2.551457,1,-
2.567181,1,-
2.583709,1,-
2.600532,1,-
2.617443,1,-
2.633437,1,-
2.650723,1,-
2.666542,1,-
2.683109,1,-
2.699726,1,-
2.716469,1,-
2.733468,1,-
2.749376,1,-
2.766355,1,-
2.783339,1,-
2.799285,1,-
2.815642,1,-
2.832455,1,-
2.849227,1,-
2.865342,1,-
2.882305,1,-
2.898475,1,-
2.915042,1,-
2.931782,1,-
2.94873,1,-
2.964742,1,-
2.981669,1,-
2.997876,1,-
3.014973,1,-
3.031195,1,-
3.048143,1,-
3.064157,1,-
3.080708,1,-
3.098001,1,-
3.113969,1,-
3.130863,1,S3_OBJ_PRESSED_IS_CORRECT
3.146975,1,-
3.163541,1,-
3.180108,1,-
3.197699,1,-
3.213646,1,-
3.229808,1,-
3.246586,1,-
3.262942,1,-
3.279508,1,-
3.296074,1,-
3.312641,1,-
3.329416,1,-
3.346374,1,-
3.362341,1,-
3.379248,1,-
3.396287,1,-
3.412214,1,-
3.428948,1,-
3.445176,1,-
3.461742,1,-
3.478309,1,-
3.494876,1,-
3.51185,1,-
3.528009,1,-
3.544668,1,-
3.561142,1,-
3.577709,1,-
3.594276,1,-
3.610842,1,-
3.62755,1,-
3.643976,1,-
3.660701,1,-
3.677114,1,-
3.693676,1,-
3.710253,1,-
3.72681,1,-
3.743375,1,-
3.760102,1,-
3.777052,1,-
3.793076,1,-
3.810013,1,-
3.826228,1,-
3.843225,1,-
3.859391,1,-
3.876442,1,-
3.892475,1,-
3.909042,1,-
3.925609,1,-
3.942565,1,-
3.958742,1,-
3.975463,1,-
3.991876,1,-
4.008442,1,-
4.025009,1,-
4.041709,1,-
4.058877,1,-
4.074709,1,-
4.091285,1,-
4.107841,1,-
4.124572,1,-
4.141527,1,-
4.157541,1,-
4.1745,1,-
0.01657616,2,TRIAL_BEGIN
0.03353003,2,-
0.04970003,2,-
0.06644586,2,-
0.08283249,2,-
0.09980853,2,-
0.1177715,2,-
0.1343421,2,-
0.1509083,2,-
0.1678569,2,-
0.1842693,2,-
0.200609,2,-
0.2171894,2,-
0.2344175,2,-
0.2503686,2,-
0.2670668,2,-
0.2842681,2,-
0.3004705,2,-
0.3167903,2,-
0.3335639,2,-
0.3497091,2,-
0.3662753,2,-
0.3830986,2,-
0.4001338,2,-
0.4159751,2,-
0.432542,2,-
0.4491085,2,-
0.4656751,2,-
0.4823789,2,-
0.4988089,2,-
0.5156996,2,-
0.531942,2,-
0.5486829,2,-
0.5656364,2,-
0.5824007,2,-
0.5985559,2,-
0.6147755,2,-
0.6314449,2,-
0.6486141,2,-
0.6644831,2,-
0.6810418,2,-
0.6976086,2,-
0.7144253,2,-
0.7307418,2,-
0.747309,2,-
0.7638832,2,-
0.7808668,2,-
0.7977678,2,-
0.8137092,2,-
0.8301415,2,-
0.8467081,2,-
0.8632743,2,-
0.8798415,2,-
0.896847,2,-
0.9138901,2,-
0.9298766,2,-
0.9461074,2,-
0.9629734,2,-
0.9797288,2,-
0.995831,2,-
1.012793,2,-
1.029721,2,-
1.045585,2,-
1.062486,2,-
1.078642,2,-
1.09548,2,-
1.111779,2,-
1.128341,2,-
1.145319,2,-
1.161475,2,-
1.178041,2,-
1.194949,2,-
1.211931,2,-
1.22781,2,-
1.244815,2,-
1.260874,2,-
1.27774,2,-
1.294711,2,-
1.310678,2,-
1.327598,2,-
1.343707,2,-
1.360511,2,-
1.376849,2,-
1.393426,2,-
1.409973,2,-
1.427308,2,-
1.443107,2,-
1.45984,2,-
1.47624,2,-
1.492806,2,-
1.509373,2,-
1.526648,2,-
1.542613,2,-
1.559074,2,-
1.576515,2,-
1.592759,2,-
1.608774,2,-
1.625647,2,-
1.641907,2,-
1.659057,2,-
1.675257,2,-
1.691772,2,-
1.708714,2,-
1.724741,2,-
1.741307,2,-
1.758225,2,-
1.774443,2,-
1.791131,2,-
1.808096,2,-
1.82414,2,-
1.841013,2,-
1.857945,2,-
1.873854,2,-
1.890841,2,-
1.907642,2,-
1.923795,2,-
1.940107,2,-
1.956692,2,-
1.973645,2,-
1.990594,2,-
2.006567,2,-
2.023808,2,-
2.039508,2,-
2.056708,2,-
2.072671,2,-
2.089441,2,-
2.106608,2,-
2.122782,2,-
2.138907,2,-
2.155777,2,-
2.172049,2,-
2.188622,2,-
2.205855,2,-
2.222094,2,-
2.238307,2,-
2.254874,2,-
2.271735,2,-
2.288691,2,-
2.304951,2,-
2.321141,2,-
2.337716,2,-
2.354595,2,-
2.370842,2,-
2.387682,2,-
2.403976,2,-
2.420545,2,-
2.437469,2,-
2.453676,2,-
2.470409,2,-
2.486808,2,-
2.503376,2,-
2.520297,2,-
2.537045,2,-
2.553219,2,-
2.569642,2,-
2.586207,2,-
2.603404,2,-
2.619428,2,-
2.635909,2,-
2.652475,2,-
2.669042,2,-
2.685609,2,-
2.702175,2,-
2.718742,2,-
2.735399,2,-
2.751875,2,-
2.76892,2,-
2.785009,2,-
2.801573,2,-
2.81814,2,-
2.834842,2,-
2.851274,2,-
2.868219,2,-
2.885114,2,-
2.901097,2,-
2.917853,2,-
2.934108,2,-
2.950937,2,-
2.967854,2,-
2.983808,2,-
3.000756,2,-
3.016995,2,-
3.034126,2,-
3.050075,2,-
3.067238,2,-
3.083374,2,-
3.099775,2,-
3.116342,2,-
3.132908,2,-
3.149475,2,-
3.166171,2,-
3.182629,2,-
3.199572,2,-
3.215742,2,-
3.232518,2,-
3.248874,2,-
3.266037,2,-
3.282007,2,-
3.298954,2,-
3.315945,2,-
3.331707,2,-
3.348274,2,-
3.36484,2,-
3.381407,2,-
3.397973,2,-
3.414913,2,-
3.431953,2,-
3.447895,2,-
3.465067,2,-
3.480807,2,-
3.498218,2,-
3.51418,2,-
3.530508,2,-
3.547074,2,-
3.56405,2,-
3.580207,2,-
3.596953,2,-
3.613341,2,-
3.629908,2,-
3.646825,2,-
3.663793,2,-
3.679731,2,-
3.696494,2,-
3.712905,2,-
3.729862,2,-
3.745874,2,-
3.762758,2,-
3.779008,2,-
3.796024,2,-
3.813256,2,-
3.829198,2,-
3.846164,2,-
3.862001,2,-
3.879029,2,-
3.894975,2,-
3.911802,2,-
3.928748,2,-
3.944708,2,-
3.961728,2,-
3.977809,2,-
3.994548,2,-
4.010941,2,-
4.027814,2,-
4.044074,2,-
4.060641,2,-
4.077209,2,-
4.09392,2,-
4.110341,2,-
4.126908,2,-
4.143475,2,-
4.160041,2,-
4.176928,2,-
4.193911,2,-
4.20987,2,-
4.226842,2,-
4.243032,2,-
4.25944,2,-
4.276056,2,-
4.292913,2,-
4.309142,2,-
4.325828,2,-
4.342762,2,-
4.358841,2,-
4.375928,2,-
4.392113,2,-
4.408542,2,-
4.425266,2,-
4.441675,2,-
4.458241,2,-
4.474808,2,-
4.491374,2,-
4.507941,2,-
4.524508,2,-
4.541624,2,-
4.557641,2,-
4.574496,2,-
4.591403,2,-
4.607341,2,-
4.623908,2,-
4.640475,2,-
4.657114,2,-
4.673608,2,-
4.690243,2,-
4.707046,2,-
4.723309,2,-
4.740109,2,-
4.756442,2,-
4.773009,2,-
4.789575,2,-
4.806142,2,-
4.82299,2,-
0.01685663,3,TRIAL_BEGIN
0.03323897,3,-
0.04966794,3,-
0.06623484,3,-
0.08289634,3,-
0.09936765,3,-
0.1160166,3,-
0.1325018,3,-
0.1499237,3,-
0.1656336,3,-
0.1822071,3,-
0.1991077,3,-
0.2153359,3,-
0.2319005,3,-
0.2493885,3,-
0.2652473,3,-
0.2822723,3,-
0.2981681,3,-
0.314899,3,-
0.3313032,3,-
0.34788,3,-
0.3653594,3,-
0.3811014,3,-
0.3981615,3,-
0.4141393,3,-
0.4307006,3,-
0.4482544,3,-
0.464009,3,-
0.4804009,3,-
0.4974418,3,-
0.5137636,3,-
0.5307406,3,-
0.5466675,3,-
0.5632341,3,-
0.5799826,3,-
0.5963669,3,-
0.6129335,3,-
0.6296538,3,-
0.6465607,3,-
0.6626338,3,-
0.6792007,3,-
0.6957663,3,-
0.7124135,3,-
0.7294121,3,-
0.745468,3,-
0.7620339,3,-
0.7785998,3,-
0.795167,3,-
0.8117336,3,-
0.8285036,3,-
0.8454628,3,-
0.8614337,3,-
0.8780009,3,-
0.8947577,3,-
0.9112393,3,-
0.9277003,3,-
0.9442676,3,-
0.9608344,3,-
0.9780585,3,-
0.9940254,3,-
1.010938,3,-
1.0271,3,-
1.043866,3,-
1.060234,3,-
1.076913,3,-
1.093367,3,-
1.109934,3,-
1.126743,3,-
1.143365,3,-
1.159634,3,-
1.176324,3,-
1.193156,3,-
1.209662,3,-
1.2259,3,-
1.242888,3,-
1.259034,3,-
1.2756,3,-
1.292166,3,-
1.308733,3,-
1.325577,3,-
1.341866,3,-
1.358433,3,-
1.375461,3,-
1.391789,3,-
1.408753,3,-
1.4247,3,-
1.44161,3,-
1.457835,3,-
1.474561,3,-
1.490967,3,-
1.507533,3,-
1.5241,3,-
1.540667,3,-
1.557264,3,-
1.5738,3,-
1.590367,3,-
1.606934,3,-
1.623499,3,-
1.640067,3,-
1.65681,3,-
1.6732,3,-
1.689773,3,-
1.706333,3,-
1.722966,3,-
1.739466,3,-
1.756046,3,-
1.7726,3,-
1.789378,3,-
1.805733,3,-
1.823016,3,-
1.839184,3,-
1.855434,3,-
1.872654,3,-
1.8887,3,-
1.905569,3,-
1.921701,3,-
1.93828,3,-
1.954833,3,-
1.972348,3,-
1.987967,3,-
2.004729,3,-
2.021117,3,-
2.037971,3,-
2.054235,3,-
2.070801,3,-
2.087368,3,-
2.103935,3,-
2.121033,3,-
2.137069,3,-
2.153979,3,-
2.170201,3,-
2.186896,3,-
2.204019,3,-
2.22006,3,-
2.236467,3,-
2.253344,3,-
2.2696,3,-
2.286237,3,-
2.303201,3,-
2.3193,3,-
2.335867,3,-
2.35255,3,-
2.369001,3,-
2.385567,3,-
2.4023,3,-
2.419462,3,-
2.436306,3,-
2.452429,3,-
2.4684,3,-
2.48532,3,-
2.502241,3,-
2.518244,3,-
2.534971,3,-
2.551705,3,-
2.567801,3,-
2.584637,3,-
2.601346,3,-
2.617523,3,-
2.634068,3,-
2.650825,3,-
2.667201,3,-
2.683768,3,-
2.700335,3,-
2.7169,3,-
2.733802,3,-
2.750742,3,-
2.766681,3,-
2.783583,3,-
2.799733,3,-
2.816483,3,-
2.832867,3,-
2.849616,3,-
2.866001,3,-
2.882804,3,-
2.899133,3,-
2.916268,3,-
2.933229,3,-
2.948834,3,-
2.965962,3,-
2.982365,3,-
2.998534,3,-
3.015101,3,-
3.031667,3,-
3.048315,3,-
3.065327,3,-
3.082272,3,-
3.098013,3,-
3.114501,3,-
3.131068,3,-
3.148126,3,-
3.164201,3,-
3.181272,3,-
3.197547,3,-
3.214024,3,-
3.231168,3,-
3.247192,3,-
3.263602,3,-
3.280168,3,-
3.296749,3,-
3.313301,3,-
3.32987,3,-
3.34675,3,-
3.363064,3,-
3.380114,3,-
3.396359,3,-
3.412703,3,-
3.429392,3,-
3.446339,3,-
3.462403,3,-
3.479267,3,-
3.496209,3,-
3.5121,3,-
3.529145,3,-
3.545519,3,-
3.562418,3,-
3.578597,3,-
3.594936,3,-
3.611502,3,-
3.628442,3,-
3.644635,3,-
3.661417,3,-
3.678112,3,-
3.694347,3,-
3.711304,3,-
3.727468,3,-
3.744848,3,-
3.761235,3,-
3.777168,3,-
3.793735,3,-
3.810302,3,-
3.826868,3,-
3.844094,3,-
3.860003,3,-
3.87657,3,-
3.893601,3,-
3.909702,3,-
3.926534,3,-
3.942842,3,-
3.95994,3,-
3.97597,3,-
3.993121,3,-
4.009273,3,-
4.025668,3,-
4.042472,3,-
4.059425,3,-
4.075369,3,-
4.092311,3,-
4.108501,3,-
4.125074,3,-
4.141634,3,-
4.158201,3,-
4.174767,3,-
4.191334,3,-
4.208008,3,-
4.224467,3,-
4.241034,3,-
4.257884,3,-
4.274166,3,-
4.290787,3,-
4.307731,3,-
4.323867,3,-
0.01635092,4,TRIAL_BEGIN
0.03303292,4,-
0.04948273,4,-
0.06683251,4,-
0.0827938,4,-
0.09950458,4,-
0.1162861,4,-
0.1332906,4,-
0.1488838,4,-
0.1660248,4,-
0.1821416,4,-
0.1990644,4,-
0.2157867,4,-
0.2319951,4,-
0.2482845,4,-
0.2652175,4,-
0.2814176,4,-
0.2981387,4,-
0.3145511,4,-
0.3311511,4,-
0.3476829,4,-
0.3650122,4,-
0.3809741,4,-
0.3977067,4,-
0.4139502,4,-
0.4305174,4,-
0.447296,4,-
0.464019,4,-
0.4809871,4,-
0.4969302,4,-
0.5133509,4,-
0.5300534,4,-
0.5464844,4,-
0.5630512,4,-
0.5799283,4,-
0.5968451,4,-
0.6137937,4,-
0.01630858,5,TRIAL_BEGIN
0.03288375,5,-
0.04984523,5,-
0.06600894,5,-
0.08277164,5,-
0.09970368,5,-
0.1166357,5,-
0.132599,5,-
0.149619,5,-
0.1654067,5,-
0.182639,5,-
0.1995707,5,-
0.2151073,5,-
0.2316742,5,-
0.2482411,5,-
0.264808,5,-
0.2823113,5,-
0.2982441,5,-
0.3145081,5,-
0.3311642,5,-
0.3476418,5,-
0.3642087,5,-
0.3808706,5,-
0.3973415,5,-
0.4139081,5,-
0.4304753,5,-
0.01688938,6,TRIAL_BEGIN
0.0334867,6,-
0.05041775,6,-
0.06630793,6,-
0.08283415,6,-
0.09940104,6,-
0.1162186,6,-
0.1325342,6,-
0.1491229,6,-
0.1658816,6,-
0.1830657,6,-
0.1990028,6,-
0.2159223,6,-
0.2319342,6,-
0.2488765,6,-
0.265069,6,-
0.2818115,6,-
0.2981998,6,-
0.3147661,6,-
0.3316948,6,-
0.3478999,6,-
0.3644664,6,-
0.3812744,6,-
0.3982283,6,-
0.4141681,6,-
0.4307344,6,-
0.4473016,6,-
0.4640428,6,-
0.480435,6,-
0.4972371,6,-
0.5141708,6,-
0.01656657,7,TRIAL_BEGIN
0.03313247,7,-
0.04970631,7,-
0.06668565,7,-
0.08283316,7,-
0.09983267,7,-
0.1159663,7,-
0.1325332,7,-
0.1490994,7,-
0.1656663,7,-
0.1822316,7,-
0.1992976,7,-
0.215365,7,-
0.2319461,7,-
0.2491048,7,-
0.2650928,7,-
0.2820266,7,-
0.298354,7,-
0.3147651,7,-
0.3316581,7,-
0.3485604,7,-
0.3645571,7,-
0.3810317,7,-
0.3975983,7,-
0.4144354,7,-
0.4307321,7,-
0.4473476,7,-
0.4642637,7,-
0.4804327,7,-
0.4971706,7,-
0.5135662,7,-
0.5301328,7,-
0.5466996,7,-
0.5632662,7,-
0.5798328,7,-
0.5963994,7,-
0.6130496,7,-
0.6300118,7,-
0.6469888,7,-
0.6629412,7,-
0.6798415,7,-
0.6957995,7,-
0.7123657,7,-
0.7297208,7,-
0.01617463,8,TRIAL_BEGIN
0.0328639,8,-
0.04983663,8,-
0.06587499,8,-
0.08244221,8,-
0.09919631,8,-
0.1156557,8,-
0.1326033,8,-
0.1487091,8,-
0.1656025,8,-
0.1818416,8,-
0.1986734,8,-
0.2149751,8,-
0.2315916,8,-
0.2481085,8,-
0.2646751,8,-
0.2815516,8,-
0.2978069,8,-
0.3148441,8,-
0.3309403,8,-
0.3475168,8,-
0.3640745,8,-
0.3806407,8,-
0.3976029,8,-
0.4145527,8,-

