0.01737695,1,TRIAL_BEGIN
0.03333026,1,-
0.04969943,1,-
0.06632687,1,-
0.08283371,1,-
0.09940312,1,-
0.1162533,1,-
0.132534,1,-
0.1491014,1,-
0.1660562,1,-
0.1822331,1,-
0.1989382,1,-
0.2153668,1,-
0.2319425,1,-
0.2488146,1,-
0.265068,1,-
0.2818545,1,-
0.298685,1,-
0.3147666,1,-
0.3313334,1,-
0.3479,1,-
0.3645195,1,-
0.3814661,1,-
0.3976,1,-
0.4145181,1,-
0.4313367,1,-
0.4473006,1,-
0.4642702,1,-
0.4804337,1,-
0.4971345,1,-
0.5151395,1,-
0.5320625,1,-
0.5482792,1,-
0.564918,1,-
0.5814089,1,-
0.598027,1,-
0.6147822,1,-
0.6311083,1,-
0.6476755,1,-
0.664698,1,-
0.6808092,1,-
0.6976343,1,-
0.7145175,1,-
0.730578,1,-
0.7470752,1,-
0.7636421,1,-
0.7804436,1,-
0.7967752,1,-
0.8133461,1,-
0.8303032,1,-
0.8464746,1,-
0.8630424,1,-
0.8796083,1,-
0.8963498,1,-
0.9130979,1,-
0.9293081,1,-
0.9459978,1,-
0.9630183,1,-
0.9863959,1,-
1.002965,1,-
1.019815,1,-
1.036395,1,-
1.053354,1,-
1.069321,1,-
1.086342,1,-
1.103431,1,-
1.118931,1,-
1.136088,1,-
1.152897,1,-
1.168851,1,-
1.185839,1,-
1.201864,1,-
1.218863,1,-
1.234898,1,-
1.251633,1,-
1.268601,1,-
1.284598,1,-
1.301165,1,-
1.317731,1,-
1.335209,1,-
1.351256,1,-
1.367435,1,-
1.384082,1,-
1.400565,1,-
1.417132,1,-
1.433905,1,-
1.450264,1,-
1.466903,1,-
1.483398,1,-
1.499965,1,-
1.516806,1,-
1.533098,1,-
1.549716,1,-
1.566652,1,-
1.582798,1,-
1.599502,1,-
1.61593,1,-
1.632498,1,-
1.649068,1,-
1.675282,1,-
1.691851,1,-
1.708418,1,-
1.725239,1,-
1.74155,1,-
1.758117,1,-
1.774684,1,-
1.791255,1,-
1.809462,1,-
1.826028,1,-
1.842609,1,-
1.859163,1,-
1.87573,1,-
1.892297,1,-
1.909693,1,-
1.925687,1,-
1.941995,1,-
1.958619,1,-
1.975476,1,-
1.992544,1,-
2.008508,1,-
2.025396,1,-
2.041398,1,-
2.058336,1,-
2.07453,1,-
2.091163,1,-
2.10814,1,-
2.12423,1,-
2.140796,1,-
2.158065,1,-
2.174168,1,-
2.190496,1,-
2.207062,1,-
2.224036,1,-
2.240196,1,-
2.25694,1,-
2.273329,1,-
2.289896,1,-
2.306818,1,-
2.323029,1,-
2.339743,1,-
2.356688,1,-
2.37273,1,-
2.389466,1,-
2.405863,1,-
2.42247,1,-
2.43945,1,-
2.455563,1,-
2.472341,1,-
2.488696,1,-
2.506299,1,-
2.521829,1,-
2.538396,1,-
2.55501,1,-
2.571964,1,-
2.588095,1,-
2.604662,1,-
2.621228,1,-
2.637795,1,-
2.654577,1,-
2.671397,1,-
2.687496,1,-
2.704425,1,-
2.72063,1,-
2.737196,1,-
2.75394,1,-
2.770329,1,-
2.786901,1,-
2.803728,1,-
2.820029,1,-
2.836636,1,-
2.853585,1,-
2.870759,1,-
2.886593,1,-
2.902862,1,-
2.919502,1,-
2.935996,1,-
2.952562,1,-
2.969503,1,-
2.98631,1,-
3.002263,1,-
3.018829,1,-
3.036321,1,-
3.052277,1,-
3.069025,1,-
3.085178,1,-
3.101908,1,-
3.118229,1,-
3.134858,1,-
3.153219,1,-
3.169788,1,-
3.186732,1,-
3.202921,1,-
3.219687,1,-
3.236054,1,-
3.252621,1,-
3.269698,1,-
3.286657,1,-
3.302464,1,-
3.318887,1,-
3.336315,1,-
3.352316,1,-
3.368588,1,-
3.385161,1,-
3.40172,1,-
3.419262,1,-
3.43507,1,-
3.452078,1,-
3.468019,1,-
3.485112,1,-
3.501121,1,-
3.517688,1,-
3.534254,1,-
3.550821,1,-
3.567387,1,-
3.583953,1,-
3.600651,1,-
3.61755,1,-
3.634596,1,-
3.650443,1,-
3.666787,1,-
3.683449,1,-
3.69992,1,-
3.716487,1,-
3.733335,1,-
3.750251,1,-
3.766246,1,-
3.786246,1,-
3.806246,1,-
3.822813,1,-
3.839381,1,-
3.856044,1,-
3.872514,1,-
3.889081,1,-
3.905961,1,-
3.922971,1,-
3.938781,1,-
3.955348,1,-
3.971914,1,-
3.988481,1,-
4.005755,1,-
4.021655,1,-
4.038182,1,-
4.054747,1,-
4.07154,1,-
4.087884,1,-
4.104661,1,-
4.121579,1,-
4.137582,1,-
4.154371,1,-
4.171448,1,-
4.187285,1,-
4.204214,1,-
4.221136,1,-
4.237157,1,-
4.254112,1,-
4.270113,1,-
4.287067,1,-
4.303245,1,-
4.31988,1,-
4.33638,1,-
4.35303,1,-
4.369814,1,-
4.386385,1,-
4.402647,1,-
4.419271,1,-
4.436083,1,-
4.453967,1,-
4.470535,1,-
4.48744,1,-
4.50367,1,-
4.520465,1,-
4.536802,1,-
4.553411,1,-
4.570361,1,-
4.586502,1,-
4.603068,1,-
4.62032,1,-
4.636201,1,-
4.653263,1,-
4.670038,1,-
4.685909,1,-
4.702915,1,-
4.719843,1,-
4.735893,1,-
4.752169,1,-
4.768949,1,-
4.785896,1,-
4.801883,1,-
4.818604,1,-
4.835545,1,-
4.851569,1,-
4.868424,1,-
4.884702,1,-
4.90159,1,-
4.918489,1,-
4.934509,1,S2_OBJ_PRESSED
4.951196,1,-
4.967535,1,-
4.984206,1,-
5.000668,1,-
5.017235,1,-
5.033802,1,-
5.050368,1,-
5.06715,1,-
5.083845,1,-
5.100069,1,-
5.116803,1,-
5.133203,1,-
5.149769,1,-
5.166337,1,-
5.183577,1,-
5.199783,1,-
5.216558,1,-
5.23355,1,-
5.249169,1,-
5.26643,1,-
5.282371,1,-
5.298869,1,-
5.315435,1,-
5.33229,1,-
5.348568,1,-
5.365139,1,-
5.381701,1,-
5.398571,1,-
5.414834,1,-
5.431504,1,-
5.447968,1,-
5.464535,1,-
5.48134,1,-
5.497668,1,S3_OBJ_PRESSED
5.514286,1,-
5.531274,1,-
5.548299,1,-
5.564252,1,-
5.580501,1,-
5.597145,1,-
5.613635,1,-
5.630201,1,-
5.646949,1,-
5.664036,1,-
5.679901,1,-
5.696467,1,-
5.713164,1,-
5.730313,1,-
5.746167,1,-
5.763029,1,-
5.779301,1,-
5.795979,1,-
5.812438,1,-
5.829002,1,-
5.845573,1,-
5.862134,1,-
5.87887,1,-
5.895712,1,-
5.911835,1,-
5.928658,1,-
5.944968,1,-
5.961588,1,-
5.978102,1,-
5.994682,1,-
6.011423,1,-
6.027801,1,-
6.044516,1,-
6.060934,1,-
6.077501,1,-
6.094249,1,-
6.111248,1,-
6.127201,1,-
6.144306,1,-
6.16125,1,-
6.17724,1,-
6.194073,1,-
6.210134,1,-
6.227028,1,-
6.243167,1,-
6.259834,1,-
6.276305,1,-
6.292868,1,-
6.309624,1,-
6.326001,1,-
6.342567,1,-
6.359466,1,-
6.3757,1,-
6.392266,1,-
6.409551,1,-
6.425498,1,-
6.442367,1,-
6.458534,1,-
6.475416,1,-
6.492168,1,-
6.508234,1,-
6.5248,1,-
6.541368,1,-
6.558186,1,-
6.574982,1,-
6.591067,1,-
6.607635,1,-
6.624903,1,-
6.640819,1,-
6.657338,1,-
6.673904,1,-
6.690467,1,-
6.707168,1,-
6.7236,1,-
6.740171,1,-
6.757059,1,-
6.773301,1,-
0.01672671,2,TRIAL_BEGIN
0.0334648,2,-
0.04970171,2,-
0.06626174,2,-
0.08282945,2,-
0.09939659,2,-
0.1163716,2,-
0.1332201,2,-
0.1492334,2,-
0.1661624,2,-
0.1822294,2,-
0.1990204,2,-
0.2153634,2,-
0.2320842,2,-
0.2484963,2,-
0.2651166,2,-
0.2818971,2,-
0.2981955,2,-
0.3148636,2,-
0.3316984,2,-
0.3478954,2,-
0.3644629,2,-
0.3810291,2,-
0.3975965,2,-
0.4141634,2,-
0.4309959,2,-
0.4474732,2,-
0.4638631,2,-
0.4806114,2,-
0.4973925,2,-
0.5135628,2,-
0.5304781,2,-
0.5471906,2,-
0.5633973,2,-
0.5802848,2,-
0.5972908,2,-
0.6130239,2,-
0.6302134,2,-
0.6460959,2,-
0.6626625,2,-
0.6792339,2,-
0.6958389,2,-
0.7123634,2,-
0.7289299,2,-
0.7456908,2,-
0.7626405,2,-
0.7786294,2,-
0.7957634,2,-
0.8117645,2,-
0.8284901,2,-
0.844896,2,-
0.8614631,2,-
0.8780293,2,-
0.8945965,2,-
0.9111633,2,-
0.9277299,2,-
0.9442965,2,-
0.9608631,2,-
0.9774296,2,-
0.9939965,2,-
1.010563,2,S2_OBJ_PRESSED
1.027133,2,-
1.043868,2,-
1.060263,2,-
1.076898,2,-
1.093803,2,-
1.109964,2,-
1.126876,2,-
1.143096,2,-
1.159663,2,-
1.176759,2,-
1.192797,2,-
1.209675,2,-
1.22593,2,-
1.242496,2,-
1.259403,2,-
1.275629,2,-
1.292284,2,-
1.309269,2,-
1.32533,2,-
1.342096,2,-
1.358464,2,-
1.37503,2,-
1.391599,2,-
1.417063,2,-
1.434034,2,-
1.450198,2,-
1.466785,2,-
1.483331,2,-
1.499898,2,-
1.516867,2,-
1.533031,2,-
1.549718,2,-
1.566165,2,-
1.582735,2,-
0.01680067,3,TRIAL_BEGIN
0.03313342,3,-
0.04970085,3,-
0.06663264,3,-
0.08283342,3,-
0.09956412,3,-
0.1159651,3,-
0.1325388,3,-
0.1618015,3,-
0.1783698,3,-
0.1953141,3,-
0.2122545,3,-
0.2281964,3,-
0.2446355,3,-
0.2612027,3,S2_OBJ_PRESSED
0.2781305,3,-
0.2943361,3,-
0.3109032,3,-
0.3276567,3,-
0.3440358,3,-
0.3606026,3,-
0.3776676,3,-
0.3940128,3,-
0.4104517,3,-
0.4273209,3,-
0.4434927,3,-
0.4600023,3,-
0.4771637,3,-
0.4931352,3,-
0.5103053,3,-
0.5262703,3,-
0.5429968,3,-
0.559965,3,-
0.5760247,3,-
0.5925357,3,-
0.6096737,3,-
0.6256689,3,-
0.642236,3,-
0.6588023,3,-
0.6754841,3,-
0.6921041,3,-
0.7085023,3,-
0.7250689,3,-
0.7418166,3,-
0.7582029,3,-
0.7748195,3,-
0.7916637,3,-
0.8079023,3,-
0.8245482,3,-
0.8410357,3,-
0.8576028,3,-
0.8741686,3,-
0.8907357,3,-
0.01758232,4,TRIAL_BEGIN
0.03351856,4,-
0.04970028,4,-
0.06629558,4,-
0.08338695,4,-
0.09939999,4,-
0.1162871,4,-
0.1325331,4,-
0.1491666,4,-
0.1656663,4,-
0.1829152,4,-
0.1988572,4,-
0.2157739,4,-
0.2323183,4,-
0.2486951,4,-
0.2650666,4,-
0.2817472,4,-
0.2986682,4,-
0.3147788,4,-
0.3315541,4,-
0.3479039,4,-
0.3645996,4,-
0.3813827,4,-
0.3975994,4,-
0.4143943,4,-
0.4314578,4,-
0.4472999,4,-
0.4642548,4,-
0.4804331,4,-
0.4971868,4,-
0.5135668,4,-
0.5302113,4,-
0.5469838,4,-
0.564059,4,-
0.5798914,4,-
0.5964,4,-
0.6137348,4,-
0.6305969,4,S2_OBJ_PRESSED
0.6471666,4,-
0.6641866,4,-
0.6802995,4,-
0.6971303,4,-
0.713432,4,-
0.7300589,4,-
0.7469842,4,-
0.7635254,4,-
0.7796983,4,-
0.7965209,4,-
0.8157277,4,-
0.8325457,4,-
0.848864,4,-
0.8654638,4,-
0.8822403,4,-
0.8985628,4,-
0.9152053,4,-
0.9316968,4,-
0.948263,4,-
0.9650412,4,-
0.9821431,4,-
0.9980242,4,-
1.014973,4,-
1.031096,4,-
1.047877,4,-
1.064229,4,-
1.080796,4,-
1.097875,4,-
1.11393,4,-
1.130764,4,-
1.147062,4,-
1.163631,4,-
1.180513,4,-
1.197351,4,-
1.21333,4,-
1.230495,4,-
1.246466,4,-
1.263075,4,-
1.28005,4,-
1.296162,4,-
1.312968,4,-
0.01624174,5,TRIAL_BEGIN
0.03289592,5,-
0.04986554,5,-
0.0659497,5,-
0.08278991,5,-
0.09907488,5,-
0.1157054,5,-
0.1326173,5,-
0.1487737,5,-
0.1655593,5,-
0.1819089,5,-
0.1984752,5,-
0.2150414,5,-
0.2316077,5,-
0.2481752,5,-
0.265262,5,-
0.2814406,5,-
0.2978746,5,-
0.3144406,5,-
0.3311349,5,-
0.3480433,5,-
0.3641463,5,-
0.3811668,5,-
0.3972757,5,-
0.4141219,5,-
0.4310301,5,-
0.4470042,5,-
0.4638091,5,-
0.4807133,5,-
0.4968512,5,-
0.5132406,5,-
0.5298066,5,-
0.5466413,5,-
0.5637299,5,-
0.5795543,5,-
0.5960748,5,-
0.6126414,5,-
0.6295359,5,-
0.646297,5,-
0.6624597,5,-
0.6794313,5,-
0.6954742,5,-
0.712301,5,-
0.7292576,5,-
0.7451742,5,-
0.7617411,5,-
0.7789642,5,-
0.7948743,5,-
0.8119249,5,-
0.8280102,5,-
0.8448265,5,-
0.8611408,5,-
0.8777079,5,-
0.8942739,5,-
0.9108407,5,-
0.9276898,5,-
0.9439745,5,-
0.9606113,5,-
0.9771079,5,-
0.9945697,5,-
1.010241,5,-
1.026808,5,-
1.043441,5,-
1.060357,5,-
1.076508,5,-
1.093299,5,-
1.109642,5,-
1.126486,5,-
1.143278,5,-
1.159341,5,-
1.176156,5,-
1.192475,5,-
1.209237,5,-
1.22621,5,-
1.242175,5,-
1.259106,5,-
1.275877,5,-
1.291874,5,-
1.308441,5,-
1.325718,5,-
1.341652,5,-
1.358602,5,-
1.374708,5,-
1.391274,5,-
1.40845,5,-
1.424673,5,-
1.440975,5,-
1.457585,5,-
1.474108,5,-
1.490675,5,-
1.507385,5,-
1.524162,5,-
1.540374,5,-
1.557252,5,-
1.573508,5,-
1.590079,5,-
1.606643,5,-
1.623918,5,-
1.639878,5,-
1.656341,5,-
1.672908,5,-
1.689963,5,-
1.70604,5,-
1.722809,5,-
1.739809,5,-
1.755748,5,-
1.772645,5,-
1.789657,5,-
1.80561,5,-
1.822383,5,-
1.838574,5,S2_OBJ_PRESSED
1.85552,5,-
1.872321,5,-
1.888274,5,-
1.905158,5,-
1.922099,5,-
1.938033,5,-
1.954541,5,-
1.971112,5,-
1.988579,5,-
2.005149,5,-
2.021936,5,-
2.039012,5,-
2.054847,5,-
2.071883,5,-
2.087992,5,-
2.104841,5,-
2.121112,5,-
2.137679,5,-
2.154562,5,-
2.170812,5,-
2.187569,5,-
2.204462,5,-
2.220517,5,-
2.237503,5,-
2.254281,5,-
2.270237,5,-
2.286783,5,-
2.303518,5,-
2.319913,5,-
2.336697,5,-
2.353046,5,-
2.369614,5,-
2.386306,5,-
2.402746,5,-
2.419461,5,-
0.01596839,6,TRIAL_BEGIN
0.03277531,6,-
0.04893541,6,-
0.06550199,6,-
0.0825908,6,-
0.09879442,6,-
0.1152088,6,-
0.1318687,6,-
0.1486361,6,-
0.1649023,6,-
0.1817268,6,-
0.1980351,6,-
0.214695,6,-
0.2311691,6,-
0.2477351,6,-
0.2645119,6,-
0.2808694,6,-
0.2974354,6,-
0.3143735,6,-
0.3305694,6,-
0.3471798,6,-
0.3642891,6,-
0.3802689,6,-
0.3968351,6,-
0.4139279,6,-
0.4299691,6,-
0.4465457,6,-
0.4631017,6,-
0.4806408,6,-
0.4964766,6,-
0.5133752,6,-
0.5296394,6,-
0.5465291,6,-
0.5625017,6,-
0.5790691,6,-
0.5965098,6,-
0.6124278,6,-
0.6288044,6,-
0.645336,6,-
0.6619017,6,-
0.678836,6,-
0.6950354,6,-
0.7116023,6,-
0.7286806,6,-
0.7447369,6,-
0.7613765,6,-
0.7785122,6,-
0.7945312,6,-
0.8112543,6,-
0.8275691,6,-
0.8441354,6,-
0.8612845,6,-
0.8772935,6,-
0.8940063,6,-
0.9104022,6,-
0.9269719,6,-
0.9439526,6,-
0.9601022,6,-
0.9768155,6,-
0.9932353,6,-
1.009802,6,S2_OBJ_PRESSED
1.026683,6,-
1.043625,6,-
1.059603,6,-
1.076068,6,-
1.092729,6,-
1.109627,6,-
1.125768,6,-
1.142595,6,-
1.159289,6,-
1.175469,6,-
1.192036,6,-
1.208601,6,-
1.225169,6,-
1.242189,6,-
1.258301,6,-
1.275027,6,-
1.291435,6,-
1.308138,6,-
1.324874,6,-
1.341135,6,-
1.357813,6,-
1.374268,6,-
1.390847,6,-
1.407403,6,-
1.424837,6,-
1.440569,6,-
1.457494,6,-
1.473669,6,-
1.490502,6,-
1.506808,6,-
1.523371,6,-
1.539937,6,-
1.556503,6,-
1.573168,6,-
1.589644,6,-
1.606205,6,-
1.622943,6,-
1.640052,6,-
1.656878,6,-
1.672813,6,-
1.689036,6,-
1.70573,6,-
1.722669,6,-
1.738736,6,-
1.755596,6,-
1.772551,6,-
1.788476,6,-
1.805015,6,-
1.821569,6,-
1.838386,6,-
1.855299,6,-
0.01605941,7,TRIAL_BEGIN
0.03262854,7,-
0.04918344,7,-
0.06639002,7,-
0.08237518,7,-
0.09949955,7,-
0.116389,7,-
0.1324811,7,-
0.1491711,7,-
0.1652376,7,-
0.1821771,7,-
0.1983025,7,-
0.215205,7,-
0.232227,7,-
0.2481874,7,-
0.2645503,7,-
0.2811248,7,-
0.2980396,7,-
0.3142492,7,-
0.3308922,7,-
0.3476642,7,-
0.36395,7,-
0.3807933,7,-
0.3977163,7,-
0.41365,7,-
0.4304706,7,-
0.4467837,7,-
0.4633531,7,-
0.4799168,7,-
0.496484,7,-
0.5130543,7,-
0.5296205,7,-
0.5461834,7,-
0.56275,7,-
0.580251,7,-
0.5958837,7,-
0.6130095,7,-
0.6291625,7,-
0.6459762,7,-
0.6621506,7,-
0.6789629,7,-
0.6952837,7,-
0.7127684,7,-
0.7284168,7,-
0.7449842,7,-
0.7615664,7,-
0.7785363,7,-
0.7946833,7,-
0.8116777,7,-
0.8288311,7,-
0.8445836,7,-
0.861267,7,-
0.8775164,7,-
0.8944568,7,-
0.9113189,7,-
0.9296254,7,-
0.946256,7,-
0.9629881,7,-
0.9793296,7,S2_OBJ_PRESSED
0.9980739,7,-
1.014641,7,-
1.031208,7,-
1.047882,7,-
1.064343,7,-
1.080909,7,-
1.097845,7,-
1.114043,7,-
1.130818,7,-
1.147181,7,-
1.163743,7,-
1.180517,7,-
1.197575,7,-
1.213443,7,-
1.230332,7,-
1.247254,7,-
1.263235,7,-
1.27971,7,-
1.296277,7,-
1.312847,7,-
1.329412,7,-
1.346207,7,-
1.362544,7,-
1.379116,7,-
1.395879,7,-
1.412243,7,-
1.428816,7,-
1.445766,7,-
1.461943,7,-
1.47886,7,-
1.495076,7,-
1.511816,7,-
1.528209,7,-
1.544776,7,-
1.561681,7,-
1.578449,7,-
1.594476,7,-
1.611545,7,-
1.628506,7,-
1.644283,7,-
1.661308,7,-
1.677311,7,-
1.694268,7,-
1.710443,7,-
0.0167799,8,TRIAL_BEGIN
0.0338744,8,-
0.04981861,8,-
0.06656182,8,-
0.08283399,8,-
0.09953994,8,-
0.1165878,8,-
0.1325331,8,-
0.149428,8,-
0.165666,8,-
0.1822331,8,-
0.1992724,8,-
0.2153663,8,-
0.2322031,8,-
0.2491428,8,-
0.2650805,8,-
0.2816328,8,-
0.2982014,8,-
0.3147669,8,-
0.3320343,8,-
0.3480035,8,-
0.3648338,8,-
0.3810331,8,-
0.3977021,8,-
0.4141663,8,-
0.4307331,8,-
0.4475981,8,-
0.4645179,8,-
0.4804417,8,-
0.4969997,8,-
0.5135825,8,-
0.5303968,8,-
0.5466997,8,-
0.5634457,8,-
0.5801725,8,-
0.5964003,8,-
0.61329,8,-
0.6295334,8,-
0.6461003,8,-
0.663182,8,-
0.6799147,8,-
0.6958037,8,-
0.7123671,8,-
0.7289331,8,-
0.7458248,8,-
0.7626554,8,-
0.7786462,8,-
0.7957083,8,-
0.8120146,8,-
0.8283331,8,-
0.8449063,8,-
0.8614666,8,-
0.8780388,8,-
0.8949035,8,-
0.9120023,8,-
0.9277334,8,-
0.9442992,8,-
0.9608663,8,-
0.9774334,8,-
0.9939997,8,-
1.010652,8,-
1.027133,8,-
1.043785,8,-
1.060626,8,-
1.076833,8,-
1.093498,8,-
1.110442,8,-
1.126534,8,-
1.143477,8,-
1.160272,8,-
1.176234,8,-
1.1928,8,-
1.210223,8,-
1.22607,8,-
1.243074,8,-
1.259067,8,-
1.275996,8,-
1.292894,8,-
1.308876,8,-
1.325334,8,-
1.3419,8,-
1.358768,8,S2_OBJ_PRESSED
1.375717,8,-
1.391643,8,-
1.409356,8,-
1.424733,8,-
1.441301,8,-
1.457867,8,-
1.474438,8,-
1.491357,8,-
1.507567,8,-
1.524323,8,-
1.5407,8,-
1.557287,8,-
1.574218,8,-
1.590401,8,-
1.60704,8,-
1.62405,8,-
1.640175,8,-
1.657006,8,-
1.673967,8,-
1.690092,8,-
1.706366,8,-
1.723292,8,-
1.73951,8,-
1.756185,8,-
1.772648,8,-
1.7892,8,-
1.806281,8,-
1.822333,8,-
1.838955,8,-
1.855987,8,-
1.872033,8,-
1.888903,8,-
1.905167,8,-
1.921733,8,-

